{
    "success_code": 200,
    "message": [
        {
            "id": 1,
            "imgurl": "http://127.0.0.1:1688/images/home/s1.jpg",
            "detail": "http://mobile.yangkeduo.com/subject.html?subject_id=6153"
        },
        {
            "id": 2,
            "imgurl": "http://127.0.0.1:1688/images/home/s2.jpg",
            "detail": "http://mobile.yangkeduo.com/subject.html?subject_id=228"
        },
        {
            "id": 3,
            "imgurl": "http://127.0.0.1:1688/images/home/s3.jpg",
            "detail": "http://mobile.yangkeduo.com/subject.html?subject_id=6242"
        },
        {
            "id": 4,
            "imgurl": "http://127.0.0.1:1688/images/home/s4.jpg",
            "detail": "http://mobile.yangkeduo.com/subject.html?subject_id=6153"
        },
        {
            "id": 5,
            "imgurl": "http://127.0.0.1:1688/images/home/s5.jpg",
            "detail": "http://mobile.yangkeduo.com/subject.html?subject_id=6230"
        },
        {
            "id": 6,
            "imgurl": "http://127.0.0.1:1688/images/home/s6.jpg",
            "detail": "http://mobile.yangkeduo.com/promotion_op.html?type=12&id=190"
        },
        {
            "id": 7,
            "imgurl": "http://127.0.0.1:1688/images/home/s7.jpg",
            "detail": "ttp://mobile.yangkeduo.com/promotion_op.html?type=12&id=229"
        },
        {
            "id": 8,
            "imgurl": "http://127.0.0.1:1688/images/home/s8.jpg",
            "detail": "http://mobile.yangkeduo.com/subject.html?subject_id=6153"
        },
        {
            "id": 9,
            "imgurl": "http://127.0.0.1:1688/images/home/s9.jpg",
            "detail": "http://mobile.yangkeduo.com/subject.html?subject_id=6242"
        }
    ]
}
